%YAML 1.1
%TAG !u! tag:unity3d.com,2011:
--- !u!1045 &1
EditorBuildSettings:
  m_ObjectHideFlags: 0
  serializedVersion: 2
  m_Scenes:
  - enabled: 1
    path: Assets/Demo.unity
    guid: 6186caa60bfc5401ab508b7c9a00f895
  - enabled: 1
    path: Assets/DummyScene.unity
    guid: fa4c727d8b6944f7c80ce9382c33c0a8
